digraph "Collatz.h"
{
  edge [fontname="Helvetica",fontsize="10",labelfontname="Helvetica",labelfontsize="10"];
  node [fontname="Helvetica",fontsize="10",shape=record];
  Node4 [label="Collatz.h",height=0.2,width=0.4,color="black", fillcolor="grey75", style="filled", fontcolor="black"];
  Node4 -> Node5 [dir="back",color="midnightblue",fontsize="10",style="solid",fontname="Helvetica"];
  Node5 [label="Collatz.c++",height=0.2,width=0.4,color="black", fillcolor="white", style="filled",URL="$Collatz_8c_09_09.html"];
  Node4 -> Node6 [dir="back",color="midnightblue",fontsize="10",style="solid",fontname="Helvetica"];
  Node6 [label="RunCollatz.c++",height=0.2,width=0.4,color="black", fillcolor="white", style="filled",URL="$RunCollatz_8c_09_09.html"];
  Node4 -> Node7 [dir="back",color="midnightblue",fontsize="10",style="solid",fontname="Helvetica"];
  Node7 [label="TestCollatz.c++",height=0.2,width=0.4,color="black", fillcolor="white", style="filled",URL="$TestCollatz_8c_09_09.html"];
}
